{
  "project_info": {
    "project_number": "120961692687",
    "firebase_url": "https://plantmanager-bd66e-default-rtdb.firebaseio.com",
    "project_id": "plantmanager-bd66e",
    "storage_bucket": "plantmanager-bd66e.appspot.com"
  },
  "client": [
    {
      "client_info": {
        "mobilesdk_app_id": "1:120961692687:android:ff2c9f97d775a8c076df7a",
        "android_client_info": {
          "package_name": "com.elbertribeiro.plantmanager"
        }
      },
      "oauth_client": [
        {
          "client_id": "120961692687-32v3t9b07u2a8m2btac8llrh5j84j506.apps.googleusercontent.com",
          "client_type": 3
        }
      ],
      "api_key": [
        {
          "current_key": "AIzaSyASIFZ5cbpkE9nzEolDe30DCFobe-x9WyY"
        }
      ],
      "services": {
        "appinvite_service": {
          "other_platform_oauth_client": [
            {
              "client_id": "120961692687-32v3t9b07u2a8m2btac8llrh5j84j506.apps.googleusercontent.com",
              "client_type": 3
            }
          ]
        }
      }
    }
  ],
  "configuration_version": "1"
}